%YAML 1.1
%TAG !u! tag:unity3d.com,2011:
--- !u!181963792 &2655988077585873504
Preset:
  m_ObjectHideFlags: 0
  m_CorrespondingSourceObject: {fileID: 0}
  m_PrefabInstance: {fileID: 0}
  m_PrefabAsset: {fileID: 0}
  m_Name: BanditPistol_Right
  m_TargetType:
    m_NativeTypeID: 4
    m_ManagedTypePPtr: {fileID: 0}
    m_ManagedTypeFallback: 
  m_Properties:
  - target: {fileID: 0}
    propertyPath: m_LocalRotation.x
    value: 0.049644034
    objectReference: {fileID: 0}
  - target: {fileID: 0}
    propertyPath: m_LocalRotation.y
    value: 0.00016278018
    objectReference: {fileID: 0}
  - target: {fileID: 0}
    propertyPath: m_LocalRotation.z
    value: 0.16605625
    objectReference: {fileID: 0}
  - target: {fileID: 0}
    propertyPath: m_LocalRotation.w
    value: 0.98486584
    objectReference: {fileID: 0}
  - target: {fileID: 0}
    propertyPath: m_LocalPosition.x
    value: -0.01776843
    objectReference: {fileID: 0}
  - target: {fileID: 0}
    propertyPath: m_LocalPosition.y
    value: 0.03820114
    objectReference: {fileID: 0}
  - target: {fileID: 0}
    propertyPath: m_LocalPosition.z
    value: 0.030482497
    objectReference: {fileID: 0}
  - target: {fileID: 0}
    propertyPath: m_LocalScale.x
    value: 1
    objectReference: {fileID: 0}
  - target: {fileID: 0}
    propertyPath: m_LocalScale.y
    value: 1
    objectReference: {fileID: 0}
  - target: {fileID: 0}
    propertyPath: m_LocalScale.z
    value: 1
    objectReference: {fileID: 0}
  - target: {fileID: 0}
    propertyPath: m_RootOrder
    value: 0
    objectReference: {fileID: 0}
  - target: {fileID: 0}
    propertyPath: m_LocalEulerAnglesHint.x
    value: 0
    objectReference: {fileID: 0}
  - target: {fileID: 0}
    propertyPath: m_LocalEulerAnglesHint.y
    value: 0
    objectReference: {fileID: 0}
  - target: {fileID: 0}
    propertyPath: m_LocalEulerAnglesHint.z
    value: 0
    objectReference: {fileID: 0}
